{
  "categories" : {
    "href" : "https://api.spotify.com/v1/browse/categories?offset=0&limit=20",
    "items" : [ {
      "href" : "https://api.spotify.com/v1/browse/categories/toplists",
      "icons" : [ {
        "height" : 275,
        "url" : "https://t.scdn.co/media/derived/toplists_11160599e6a04ac5d6f2757f5511778f_0_0_275_275.jpg",
        "width" : 275
      } ],
      "id" : "toplists",
      "name" : "Top Lists"
    }, {
      "href" : "https://api.spotify.com/v1/browse/categories/pop",
      "icons" : [ {
        "height" : 274,
        "url" : "https://t.scdn.co/media/derived/pop-274x274_447148649685019f5e2a03a39e78ba52_0_0_274_274.jpg",
        "width" : 274
      } ],
      "id" : "pop",
      "name" : "Pop"
    }, {
      "href" : "https://api.spotify.com/v1/browse/categories/russian_rap",
      "icons" : [ {
        "height" : null,
        "url" : "https://t.scdn.co/images/f0dc661055614c47ade17bc69b9fef02",
        "width" : null
      } ],
      "id" : "russian_rap",
      "name" : "Russian Rap"
    }, {
      "href" : "https://api.spotify.com/v1/browse/categories/radar",
      "icons" : [ {
        "height" : null,
        "url" : "https://t.scdn.co/images/c6677aa51acf4121b66b9d1f231bd427.png",
        "width" : null
      } ],
      "id" : "radar",
      "name" : "RADAR"
    }, {
      "href" : "https://api.spotify.com/v1/browse/categories/at_home",
      "icons" : [ {
        "height" : null,
        "url" : "https://t.scdn.co/images/04da469dd7be4dab96659aa1fa9f0ac9.jpeg",
        "width" : null
      } ],
      "id" : "at_home",
      "name" : "At Home"
    }, {
      "href" : "https://api.spotify.com/v1/browse/categories/rock",
      "icons" : [ {
        "height" : 274,
        "url" : "https://t.scdn.co/media/derived/rock_9ce79e0a4ef901bbd10494f5b855d3cc_0_0_274_274.jpg",
        "width" : 274
      } ],
      "id" : "rock",
      "name" : "Rock"
    }, {
      "href" : "https://api.spotify.com/v1/browse/categories/focus",
      "icons" : [ {
        "height" : 274,
        "url" : "https://t.scdn.co/media/original/genre-images-square-274x274_5e50d72b846a198fcd2ca9b3aef5f0c8_274x274.jpg",
        "width" : 274
      } ],
      "id" : "focus",
      "name" : "Focus"
    }, {
      "href" : "https://api.spotify.com/v1/browse/categories/edm_dance",
      "icons" : [ {
        "height" : 274,
        "url" : "https://t.scdn.co/media/derived/edm-274x274_0ef612604200a9c14995432994455a6d_0_0_274_274.jpg",
        "width" : 274
      } ],
      "id" : "edm_dance",
      "name" : "Dance/Electronic"
    }, {
      "href" : "https://api.spotify.com/v1/browse/categories/chill",
      "icons" : [ {
        "height" : 274,
        "url" : "https://t.scdn.co/media/derived/chill-274x274_4c46374f007813dd10b37e8d8fd35b4b_0_0_274_274.jpg",
        "width" : 274
      } ],
      "id" : "chill",
      "name" : "Chill"
    }, {
      "href" : "https://api.spotify.com/v1/browse/categories/indie_alt",
      "icons" : [ {
        "height" : null,
        "url" : "https://t.scdn.co/images/fe06caf056474bc58862591cd60b57fc.jpeg",
        "width" : null
      } ],
      "id" : "indie_alt",
      "name" : "Indie"
    }, {
      "href" : "https://api.spotify.com/v1/browse/categories/workout",
      "icons" : [ {
        "height" : null,
        "url" : "https://t.scdn.co/media/links/workout-274x274.jpg",
        "width" : null
      } ],
      "id" : "workout",
      "name" : "Workout"
    }, {
      "href" : "https://api.spotify.com/v1/browse/categories/equal",
      "icons" : [ {
        "height" : null,
        "url" : "https://t.scdn.co/images/084155aeaa724ea1bd393a017d67b709",
        "width" : null
      } ],
      "id" : "equal",
      "name" : "EQUAL"
    }, {
      "href" : "https://api.spotify.com/v1/browse/categories/decades",
      "icons" : [ {
        "height" : null,
        "url" : "https://t.scdn.co/images/b611cf5145764c64b80e91ccd5f357c8",
        "width" : null
      } ],
      "id" : "decades",
      "name" : "Decades"
    }, {
      "href" : "https://api.spotify.com/v1/browse/categories/hiphop",
      "icons" : [ {
        "height" : 274,
        "url" : "https://t.scdn.co/media/original/hip-274_0a661854d61e29eace5fe63f73495e68_274x274.jpg",
        "width" : 274
      } ],
      "id" : "hiphop",
      "name" : "Hip Hop"
    }, {
      "href" : "https://api.spotify.com/v1/browse/categories/mood",
      "icons" : [ {
        "height" : 274,
        "url" : "https://t.scdn.co/media/original/mood-274x274_976986a31ac8c49794cbdc7246fd5ad7_274x274.jpg",
        "width" : 274
      } ],
      "id" : "mood",
      "name" : "Mood"
    }, {
      "href" : "https://api.spotify.com/v1/browse/categories/alternative",
      "icons" : [ {
        "height" : null,
        "url" : "https://t.scdn.co/images/ee9451b3ed474c82b1da8f9b5eafc88f.jpeg",
        "width" : null
      } ],
      "id" : "alternative",
      "name" : "Alternative"
    }, {
      "href" : "https://api.spotify.com/v1/browse/categories/family",
      "icons" : [ {
        "height" : null,
        "url" : "https://t.scdn.co/images/4ebb98ae04d34698a3a1ac4252c69ac6.jpeg",
        "width" : null
      } ],
      "id" : "family",
      "name" : "Kids & Family"
    }, {
      "href" : "https://api.spotify.com/v1/browse/categories/party",
      "icons" : [ {
        "height" : null,
        "url" : "https://t.scdn.co/images/7ee6530d5b3c4acc9a0957046bf11d63",
        "width" : null
      } ],
      "id" : "party",
      "name" : "Party"
    }, {
      "href" : "https://api.spotify.com/v1/browse/categories/travel",
      "icons" : [ {
        "height" : 274,
        "url" : "https://t.scdn.co/media/derived/travel-274x274_1e89cd5b42cf8bd2ff8fc4fb26f2e955_0_0_274_274.jpg",
        "width" : 274
      } ],
      "id" : "travel",
      "name" : "Travel"
    }, {
      "href" : "https://api.spotify.com/v1/browse/categories/gaming",
      "icons" : [ {
        "height" : null,
        "url" : "https://t.scdn.co/images/0d39395309ba47838ef12ce987f19d16.jpeg",
        "width" : null
      } ],
      "id" : "gaming",
      "name" : "Gaming"
    } ],
    "limit" : 20,
    "next" : "https://api.spotify.com/v1/browse/categories?offset=20&limit=20",
    "offset" : 0,
    "previous" : null,
    "total" : 40
  }
}
